{
  "apps": [
    {
      "serverURL": "http://localhost:1337/parse",
      "appId": "eggdevServer",
      "masterKey": "13478764-218d-11e6-b67b-9e71128cae77",
      "appName": "Eggdev",
      "production": false
    }
  ]
}